LocationXYZ,BlockType,FeatureType,Sequence,BombID,FuseStartTime,ChainedID
20 52 149,block_bomb_chained,Bomb,BG,1,13,54
43 52 147,block_bomb_chained,Bomb,GR,2,7,17
3 52 141,block_bomb_chained,Bomb,R,3,9,27
14 52 144,block_bomb_standard,Bomb,G,4,11,NONE
14 52 140,block_bomb_fire,Bomb,B,5,9,NONE
14 52 136,block_bomb_standard,Bomb,GB,6,9,NONE
12 52 144,block_bomb_standard,Bomb,RG,7,13,NONE
35 52 136,block_bomb_fire,Bomb,G,8,11,NONE
38 52 135,block_bomb_standard,Bomb,R,9,5,NONE
20 52 127,block_bomb_fire,Bomb,BR,10,11,NONE
12 52 119,block_bomb_chained,Bomb,G,11,5,48
34 52 120,block_bomb_fire,Bomb,R,12,7,NONE
36 52 117,block_bomb_standard,Bomb,B,13,7,NONE
22 52 117,block_bomb_standard,Bomb,RGB,14,5,NONE
22 52 113,block_bomb_fire,Bomb,RB,15,5,NONE
25 52 105,block_bomb_fire,Bomb,RBG,16,7,NONE
46 54 107,block_bomb_chained,Bomb,GRB,17,9,NONE
34 54 103,block_bomb_chained,Bomb,B,18,11,34
35 52 93,block_bomb_standard,Bomb,GR,19,11,NONE
44 52 99,block_bomb_chained,Bomb,BR,20,5,36
8 52 91,block_bomb_standard,Bomb,GRB,21,11,NONE
5 52 90,block_bomb_fire,Bomb,B,22,11,NONE
38 52 90,block_bomb_standard,Bomb,G,23,9,NONE
40 52 88,block_bomb_fire,Bomb,RG,24,7,NONE
45 52 91,block_bomb_standard,Bomb,GB,25,13,NONE
48 52 85,block_bomb_fire,Bomb,RB,26,9,NONE
9 52 81,block_bomb_chained,Bomb,BG,27,7,NONE
6 52 71,block_bomb_fire,Bomb,G,28,11,NONE
4 52 68,block_bomb_standard,Bomb,RBG,29,9,NONE
48 52 69,block_bomb_chained,Bomb,R,30,7,44
27 52 61,block_bomb_fire,Bomb,BRG,31,7,NONE
44 52 60,block_bomb_fire,Bomb,BGR,32,9,NONE
48 52 60,block_bomb_standard,Bomb,R,33,5,NONE
5 52 54,block_bomb_chained,Bomb,GBR,34,5,NONE
32 52 55,block_bomb_chained,Bomb,GRB,35,13,41
48 52 52,block_bomb_chained,Bomb,B,36,5,NONE
3 52 48,block_bomb_standard,Bomb,GBR,37,11,NONE
6 52 46,block_bomb_fire,Bomb,B,38,9,NONE
15 52 43,block_bomb_standard,Bomb,BGR,39,7,NONE
14 52 40,block_bomb_fire,Bomb,RGB,40,11,NONE
21 52 44,block_bomb_chained,Bomb,RB,41,13,NONE
45 52 44,block_bomb_standard,Bomb,BRG,42,13,NONE
43 52 41,block_bomb_fire,Bomb,GBR,43,9,NONE
50 52 43,block_bomb_chained,Bomb,RG,44,11,NONE
33 52 39,block_bomb_chained,Bomb,G,45,7,47
26 52 26,block_bomb_fire,Bomb,GR,46,5,NONE
46 52 26,block_bomb_chained,Bomb,RGB,47,5,NONE
10 52 18,block_bomb_chained,Bomb,BRG,48,5,NONE
3 52 13,block_bomb_fire,Bomb,RBG,49,7,NONE
6 52 10,block_bomb_standard,Bomb,BR,50,9,NONE
1 52 5,block_bomb_standard,Bomb,BG,51,11,NONE
19 52 10,block_bomb_fire,Bomb,GB,52,7,NONE
46 52 8,block_bomb_standard,Bomb,R,53,5,NONE
36 52 2,block_bomb_chained,Bomb,BGR,54,9,NONE