{
    "host": ["localhost", "mosquitto"],
    "port": "1883",
    "heartbeats_per_minute": 6,
    "version_info": {
        "owner": "IHMC - TA2",
        "agent_type": "AC",
        "version": "0.0.2",
        "source": [
            "https://gitlab.asist.aptima.com/asist/testbed/-/tree/develop/Agents/IHMCInterdependenceAC"
        ],
        "dependencies": [],
        "publishes": [
            {"topic": "observations/events/player/jag", "message_type": "event", "qos": 2}
        ],
        "subscribes": [
            {"topic": "player/state", "message_type": "simulator_event", "sub_type": "Event:PlayerState"},
            {"topic": "object/state/change", "message_type": "simulator_event", "sub_type": "Event:ObjectStateChange"},
            {"topic": "communication/environment", "message_type": "simulator_event", "sub_type": "Event:ObjectStateChange"}
        ],
        "config": []
    }
}
