LocationXYZ,BlockType,FeatureType,Sequence,BombID,FuseStartTime,ChainedID
10 52 149,block_bomb_fire,Bomb,R,1,6,NONE
38 52 149,block_bomb_standard,Bomb,G,2,6,NONE
44 52 146,block_bomb_chained,Bomb,BGR,3,7,NONE
50 52 144,block_bomb_standard,Bomb,GR,4,7,NONE
4 52 141,block_bomb_standard,Bomb,RB,5,3,NONE
48 53 140,block_bomb_standard,Bomb,BG,6,3,NONE
11 53 128,block_bomb_fire,Bomb,GR,7,3,NONE
25 53 125,block_bomb_standard,Bomb,GBR,8,5,NONE
39 53 123,block_bomb_standard,Bomb,R,9,5,NONE
39 53 123,block_bomb_standard,Bomb,BG,10,5,NONE
46 54 107,block_bomb_standard,Bomb,B,11,8,NONE
14 52 106,block_bomb_fire,Bomb,RGB,12,8,NONE
5 52 105,block_bomb_chained,Bomb,BG,13,8,-1
34 54 103,block_bomb_standard,Bomb,BR,14,4,NONE
41 52 103,block_bomb_standard,Bomb,GB,15,4,NONE
35 52 93,block_bomb_standard,Bomb,R,16,4,NONE
49 52 99,block_bomb_fire,Bomb,RG,17,4,NONE
49 52 91,block_bomb_standard,Bomb,BR,18,7,NONE
45 52 91,block_bomb_chained,Bomb,BGR,19,7,20
34 63 75,block_bomb_chained,Bomb,GB,20,7,NONE
8 52 92,block_bomb_standard,Bomb,B,21,7,NONE
4 52 85,block_bomb_standard,Bomb,BR,22,7,NONE
8 52 98,block_bomb_fire,Bomb,GBR,23,8,NONE
10 52 81,block_bomb_standard,Bomb,GB,24,8,NONE
8 52 55,block_bomb_standard,Bomb,G,25,8,NONE
4 52 71,block_bomb_standard,Bomb,BRG,26,6,NONE
48 52 60,block_bomb_standard,Bomb,G,27,6,NONE
45 52 52,block_bomb_standard,Bomb,GB,28,6,NONE
32 52 55,block_bomb_fire,Bomb,RG,29,6,NONE
30 55 73,block_bomb_standard,Bomb,BR,30,8,NONE
14 52 44,block_bomb_standard,Bomb,B,31,8,NONE
3 52 46,block_bomb_standard,Bomb,RB,32,8,NONE
19 52 45,block_bomb_standard,Bomb,BG,33,9,NONE
4 52 13,block_bomb_standard,Bomb,G,34,9,NONE
1 52 3,block_bomb_standard,Bomb,RBG,35,9,NONE
7 52 9,block_bomb_fire,Bomb,GB,36,9,NONE
9 52 18,block_bomb_standard,Bomb,RG,37,9,NONE
50 52 44,block_bomb_chained,Bomb,BGR,38,6,43
47 52 12,block_bomb_standard,Bomb,R,39,6,NONE
37 52 2,block_bomb_standard,Bomb,RB,40,6,NONE
47 52 25,block_bomb_fire,Bomb,GR,41,6,NONE
41 52 31,block_bomb_chained,Bomb,BG,42,11,38
47 52 33,block_bomb_chained,Bomb,GBR,43,11,NONE
37 52 45,block_bomb_standard,Bomb,B,44,11,NONE
16 52 15,block_bomb_standard,Bomb,RGB,45,11,NONE
