{
	"definitions": {

	},
	"$schema": "http://json-schema.org/draft-07/schema#",
	"$id": "http://asist.aptima.com/schemas/export_replay.json",
	"type": "object",
	"title": "The Root Schema",
	"required": [ "header", "msg", "data" ],
	"properties": {
		"header": {
			"$ref": "../../../Common_Header/common_header.json"
		},
		"msg": {
			"$ref": "../../../Common_Message/common_message.json"
		},
		"data": {
			"$id": "#/properties/data",
			"type": "object",
			"title": "The Export Trial Data Schema",
			"required": [ "index", "metadata" ],
			"properties": {
				"index": {
					"$id": "#/properties/data/properties/index",
					"type": "string",
					"title": "The Index Schema",
					"default": "",
					"examples": [ "index" ],
					"pattern": "^(.*)$"
				},
				"state": {
					"$id": "#/properties/data/properties/state",
					"type": "string",
					"title": "The State Schema",
					"default": "",
					"examples": [ "STARTED" ],
					"pattern": "^(.*)$"
				},
				"records": {
					"$id": "#/properties/data/properties/records",
					"type": "number",
					"title": "The Records Schema",
					"default": "",
					"examples": [ 0 ],
					"pattern": "^[0-9]+$"
				},
				"metadata": {
					"$id": "#/properties/data/properties/metadata",
					"type": "object",
					"title": "The Metadata Schema",
					"required": [ "parents" ],
					"properties": {
						"parents": {
							"$id": "#/properties/data/properties/metadata/properties/parents",
							"type": "object",
							"title": "The Parents Schema",
							"required": [ "trial", "replay" ],
							"properties": {
								"trial": {
									"$ref": "../../Trial/trial.json"
								},
								"replay": {
									"$ref": "../../Replay/replay.json"
								}
							},
							"anyOf": [
								{
									"required": [ "trial" ]
								},
								{
									"required": [ "replay" ]
								}
							],
							"additionalProperties": false
						}
					}
				}
			}
		}
	}
}