[
    {
      "arguments": {
        "topic": [
          {
            "arguments": null,
            "attachments": [
              {
                "agentType": "Team",
                "labels": [
                  "Team",
                  "Entity",
                  "Concept"
                ],
                "span": [
                  0
                ],
                "text": "We"
              }
            ],
            "end_offset": 18,
            "labels": [
              "SpreadOut",
              "TeamStrategies",
              "Communicate",
              "SimpleAction",
              "Action",
              "EventLike",
              "Concept"
            ],
            "rule": "split_up",
            "span": "split up",
            "start_offset": 10
          }
        ]
      },
      "attachments": [
        {
          "agentType": "Team",
          "labels": [
            "Team",
            "Entity",
            "Concept"
          ],
          "span": [
            0
          ],
          "text": "We"
        }
      ],
      "end_offset": 18,
      "labels": [
        "ShouldPlan",
        "Plan",
        "Communicate",
        "SimpleAction",
        "Action",
        "EventLike",
        "Concept"
      ],
      "rule": "shall_should_plan",
      "span": "should split up",
      "start_offset": 3
    },
    {
      "arguments": null,
      "attachments": [
        {
          "agentType": "Team",
          "labels": [
            "Team",
            "Entity",
            "Concept"
          ],
          "span": [
            0
          ],
          "text": "We"
        }
      ],
      "end_offset": 18,
      "labels": [
        "SpreadOut",
        "TeamStrategies",
        "Communicate",
        "SimpleAction",
        "Action",
        "EventLike",
        "Concept"
      ],
      "rule": "split_up",
      "span": "split up",
      "start_offset": 10
    }
  ]
