{
    "variants":{
        "normal": { "model":"asistmod:block_bomb_volatile"},
        "explode=0": { "model":"asistmod:block_bomb_fire" },
        "explode=1": { "model":"asistmod:block_bomb_fire_stage1" },
        "explode=2": { "model":"asistmod:block_bomb_fire_stage2" },
        "explode=3": { "model":"asistmod:block_bomb_fire_stage3" }
    }
}
