{
    "variants":{
        "normal": { "model":"asistmod:block_bomb_standard"},
        "explode=0": { "model":"asistmod:block_bomb_standard" },
        "explode=1": { "model":"asistmod:block_bomb_standard_stage1" },
        "explode=2": { "model":"asistmod:block_bomb_standard_stage2" },
        "explode=3": { "model":"asistmod:block_bomb_standard_stage3" }
    }
}
