{
    "showGlobalPositions":false,
    "admin_stack_ip":"SET_BY_ENV_FILE",
    "admin_stack_port":"SET_BY_ENV_FILE",
    "db_api_token":"SET_BY_ENV_FILE",
    "map_name":"Dragon_1.1_3D",
    "player_timeout_ms":180000,
    "callSigns":["Alpha","Bravo","Delta"],
    "no_advisor_prompt_interval": 45000,   
    "experiment_proceed_timeout": 60000
}

    
