{
  "parent": "item/generated",
  "textures": {
    "layer0" : "asistmod:items/item_bombppe_chestplate"
  },
  "overrides": [
    { "predicate": { "asistmod:isEquipped": 0 }, "model": "asistmod:item/item_bombppe_chestplate" },
    { "predicate": { "asistmod:isEquipped": 1 }, "model": "asistmod:item/item_bombppe_chestplate_equipped" }
  ]
}