{   
    "participant_id":"Not Set",
    "surveys":[
	{
			"survey_name":"Demographic Questions",
			"survey_id":"DEMO",
			"data":[
				{
					"qid":"7",
					"text":"How did you hear about us? (email, flyer, forum post, advertising, event, etc ...)",
					"input_type":"TEXT",
					"image_asset":null,
					"labels":null 
				},
				{
					"qid":"1",
					"text":"What is your age in years?",
					"input_type":"TEXT",
					"image_asset":null,
					"labels":null 
				},
				{
					"qid":"2",
					"text":"What sex were you assigned at birth, on your original birth certificate?",
					"input_type":"MULTI_CHOICE",
					"image_asset":null,
					"labels":[
						"Male (1)",
						"Female (2)",
						"Don't know (3)",
						"Prefer not to answer (4)"
					]
				},
				{
                    "qid":"6",
                    "text":"What best describes your current gender identity?",
                    "input_type":"MULTI_CHOICE",
                    "image_asset":null,
                    "labels":[
                        "Female (1)",
                        "Male (2)",
                        "Non-binary (3)",
                        "Something else (4)",
                        "Prefer not to answer (5)"
                    ]
                },
				{
					"qid":"3",
					"text":"What is your English proficiency level?",
					"input_type":"MULTI_CHOICE",
					"image_asset":null,
					"labels":[
						"Elementary proficiency (1)",
						"Limited working proficiency (2)",
						"Professional working proficiency (3)",
						"Full professional proficiency (4)",
						"Native or bilingual proficiency (5)"
					]
				},		
				{
					"qid":"4",
					"text":"The highest education level you have achieved (or equivalent):",
					"input_type":"MULTI_CHOICE",
					"image_asset":null,
					"labels":[
						"12th grade (1)",
						"Some college/currently enrolled (2)",
						"Some college/not enrolled (3)",
						"Graduated from college (4)",
						"Some training in a master's program and/or graduated from a master's program (5)",
						"Some training in a doctoral program and/or graduated from a doctoral program (6)",
						"Professional degree (MD, JD) (7)",
						"Other level (please specify) (8)"
					]
				},		
				{
					"qid":"5",
					"text":"Ethnicity",
					"input_type":"MULTI_CHOICE",
					"image_asset":null,
					"labels":[
						"White/Caucasian (1)",
						"African American (2)",
						"Hispanic or Latino (3)",
						"Asian (4)",
						"Native American (5)",
						"Pacific Islander (6)",
						"Middle Eastern (7)",
						"Other (please specify) (8)"
					]
				}
				
			]
		},
		{
            "survey_name":"Psychological Collectivism",
            "survey_id":"PSY_COL",
			"data":[
				{                     
                    "text":"Think about the work groups you currently belong to, and have belonged to in the past. The items below ask about your relationship with, and thoughts about, those particular groups. Respond to the following questions, as honestly as possible, using the response scales provided."
                },
				{
					"qid":"1",
					"text":"I preferred to work in those groups rather than working alone.",
					"input_type":"MULTI_CHOICE",
					"image_asset":null,
					"labels":[
						"Strongly disagree (1)",
						"Somewhat disagree (2)",
						"Neither agree nor disagree (3)",
						"Somewhat agree (4)",
						"Strongly agree (5)"
					]
				},
				{
					"qid":"2",
					"text":"Working in those groups was better than working alone.",
					"input_type":"MULTI_CHOICE",
					"image_asset":null,
					"labels":[
						"Strongly disagree (1)",
						"Somewhat disagree (2)",
						"Neither agree nor disagree (3)",
						"Somewhat agree (4)",
						"Strongly agree (5)"
					]
				},	
				{
					"qid":"3",
					"text":"I wanted to work with those groups as opposed to working alone.",
					"input_type":"MULTI_CHOICE",
					"image_asset":null,
					"labels":[
						"Strongly disagree (1)",
						"Somewhat disagree (2)",
						"Neither agree nor disagree (3)",
						"Somewhat agree (4)",
						"Strongly agree (5)"
					]
				},	
				{
					"qid":"4",
					"text":"I felt comfortable counting on group members to do their part.",
					"input_type":"MULTI_CHOICE",
					"image_asset":null,
					"labels":[
						"Strongly disagree (1)",
						"Somewhat disagree (2)",
						"Neither agree nor disagree (3)",
						"Somewhat agree (4)",
						"Strongly agree (5)"
					]
				},	
				{
					"qid":"5",
					"text":"I was not bothered by the need to rely on group members.",
					"input_type":"MULTI_CHOICE",
					"image_asset":null,
					"labels":[
						"Strongly disagree (1)",
						"Somewhat disagree (2)",
						"Neither agree nor disagree (3)",
						"Somewhat agree (4)",
						"Strongly agree (5)"
					]
				},	
				{
					"qid":"6",
					"text":"I felt comfortable tasking group members to handle their tasks",
					"input_type":"MULTI_CHOICE",
					"image_asset":null,
					"labels":[
						"Strongly disagree (1)",
						"Somewhat disagree (2)",
						"Neither agree nor disagree (3)",
						"Somewhat agree (4)",
						"Strongly agree (5)"
					]
				},	
				{
					"qid":"7",
					"text":"The health of those groups was important to me.",
					"input_type":"MULTI_CHOICE",
					"image_asset":null,
					"labels":[
						"Strongly disagree (1)",
						"Somewhat disagree (2)",
						"Neither agree nor disagree (3)",
						"Somewhat agree (4)",
						"Strongly agree (5)"
					]
				},	
				{
					"qid":"8",
					"text":"I cared about the well-being of those groups.",
					"input_type":"MULTI_CHOICE",
					"image_asset":null,
					"labels":[
						"Strongly disagree (1)",
						"Somewhat disagree (2)",
						"Neither agree nor disagree (3)",
						"Somewhat agree (4)",
						"Strongly agree (5)"
					]
				},	
				{
					"qid":"9",
					"text":"I was concerned about the needs of those groups.",
					"input_type":"MULTI_CHOICE",
					"image_asset":null,
					"labels":[
						"Strongly disagree (1)",
						"Somewhat disagree (2)",
						"Neither agree nor disagree (3)",
						"Somewhat agree (4)",
						"Strongly agree (5)"
					]
				},	
				{
					"qid":"10",
					"text":"I followed the norms of those groups.",
					"input_type":"MULTI_CHOICE",
					"image_asset":null,
					"labels":[
						"Strongly disagree (1)",
						"Somewhat disagree (2)",
						"Neither agree nor disagree (3)",
						"Somewhat agree (4)",
						"Strongly agree (5)"
					]
				},	
				{
					"qid":"11",
					"text":"I followed the procedures used by those groups.",
					"input_type":"MULTI_CHOICE",
					"image_asset":null,
					"labels":[
						"Strongly disagree (1)",
						"Somewhat disagree (2)",
						"Neither agree nor disagree (3)",
						"Somewhat agree (4)",
						"Strongly agree (5)"
					]
				},	
				{
					"qid":"12",
					"text":"I accepted the rules of those groups.",
					"input_type":"MULTI_CHOICE",
					"image_asset":null,
					"labels":[
						"Strongly disagree (1)",
						"Somewhat disagree (2)",
						"Neither agree nor disagree (3)",
						"Somewhat agree (4)",
						"Strongly agree (5)"
					]
				},	
				{
					"qid":"13",
					"text":"I cared more about the goals of those groups than my own goals.",
					"input_type":"MULTI_CHOICE",
					"image_asset":null,
					"labels":[
						"Strongly disagree (1)",
						"Somewhat disagree (2)",
						"Neither agree nor disagree (3)",
						"Somewhat agree (4)",
						"Strongly agree (5)"
					]
				},	
				{
					"qid":"14",
					"text":"I emphasized the goals of those groups more than my individual goals.",
					"input_type":"MULTI_CHOICE",
					"image_asset":null,
					"labels":[
						"Strongly disagree (1)",
						"Somewhat disagree (2)",
						"Neither agree nor disagree (3)",
						"Somewhat agree (4)",
						"Strongly agree (5)"
					]
				},
				{
					"qid":"15",
					"text":"Group goals were more important to me than my own personal goals.",
					"input_type":"MULTI_CHOICE",
					"image_asset":null,
					"labels":[
						"Strongly disagree (1)",
						"Somewhat disagree (2)",
						"Neither agree nor disagree (3)",
						"Somewhat agree (4)",
						"Strongly agree (5)"
					]
				}
			]
		},		
		{
            "survey_name":"Minecraft Game Proficiency Scale",
            "survey_id":"MC_PROF_15",
            "data":[
                {   
				   "text":"Please indicate how many years of experience you have with the following:"
				},
				{
					"qid":"1",
					"text":"Years using a computer for any purpose:",
					"input_type":"SLIDER",
					"image_asset":null,
					"labels":[
                        "If you have no experience, please select 0 (0)",
						"2",
						"4",
						"6",
						"8",
						"10",
						"12",
						"14",
						"16",
						"18",
                        "If you have more than 20 years of experience, please select 20 (20)"                        
                    ]
				},
				{
					"qid":"2",
					"text":"Years using a computer to play video games:",
					"input_type":"SLIDER",
					"image_asset":null,
					"labels":[
                        "If you have no experience, please select 0 (0)",
						"2",
						"4",
						"6",
						"8",
						"10",
						"12",
						"14",
						"16",
						"18",
                        "If you have more than 20 years of experience, please select 20 (20)"                        
                    ]
				},
				{
					"qid":"3",
					"text":"Years playing Minecraft (any versions or styles of play):",
					"input_type":"SLIDER",
					"image_asset":null,
					"labels":[
                        "If you have no experience, please select 0 (0)",
						"2",
						"4",
						"6",
						"8",
						"10",
						"12",
						"14",
						"16",
						"18",
                        "If you have more than 20 years of experience, please select 20 (20)"                        
                    ]
				},
                {  
				   "text":"For the following, please indicate how regularly you:"
				},
				{
					"qid":"4",
					"text":"Use a computer...",
					"input_type":"MULTI_CHOICE",
					"image_asset":null,
					"labels":[
						"None/Never (1)",
						"No more than once a year (2)",
						"No more than once every 6 months (3)",
						"No more than once a month (4)",
						"No more than once a week (5)",
						"More than once a week (6)",
						"Most days of a week (7)"
					]
				},
				{
					"qid":"5",
					"text":"Use a computer to play video games...",
					"input_type":"MULTI_CHOICE",
					"image_asset":null,
					"labels":[
						"None/Never (1)",
						"No more than once a year (2)",
						"No more than once every 6 months (3)",
						"No more than once a month (4)",
						"No more than once a week (5)",
						"More than once a week (6)",
						"Most days of a week (7)"
					]
				},
				{
					"qid":"6",
					"text":"Play video games which require participation in a team...",
					"input_type":"MULTI_CHOICE",
					"image_asset":null,
					"labels":[
						"None/Never (1)",
						"No more than once a year (2)",
						"No more than once every 6 months (3)",
						"No more than once a month (4)",
						"No more than once a week (5)",
						"More than once a week (6)",
						"Most days of a week (7)"
					]
				},
				{
					"qid":"7",
					"text":"Play Minecraft...",
					"input_type":"MULTI_CHOICE",
					"image_asset":null,
					"labels":[
						"None/Never (1)",
						"No more than once a year (2)",
						"No more than once every 6 months (3)",
						"No more than once a month (4)",
						"No more than once a week (5)",
						"More than once a week (6)",
						"Most days of a week (7)"
					]
				},
				{
                  "text":"Succeeding in different types of video games can require different skill sets and levels of mastery. Please use the slider bars below to indicate the level of mastery you have over the following skills as compared to other video gamers that you know or have played with." 
				},
				{
					"qid":"8",
					"text":"Learning the layout of a new virtual environment.",
                    "input_type": "SLIDER",
                    "image_asset":null,
                    "labels":[
                        " I have never used this skill (0)",
                        " I have never used this skill (10)",
                        " I have never used this skill (20)",
                        " I have never used this skill (30)",
                        " My mastery of this skill is average (40)",
                        " My mastery of this skill is average (50)",
                        " My mastery of this skill is average (60)",
                        " My mastery of this skill is average (70)",
                        " My mastery of this skill is at an expert level (80)",
                        " My mastery of this skill is at an expert level  (90)",
                        " My mastery of this skill is at an expert level  (100)"                        
                    ]
                },
                { 
                    "qid":"9",
                    "text":"Communicating your current location in a virtual environment to members of a team.",
                    "input_type": "SLIDER",
                    "image_asset":null,
                    "labels":[
                        " I have never used this skill (0)",
                        " I have never used this skill (10)",
                        " I have never used this skill (20)",
                        " I have never used this skill (30)",
                        " My mastery of this skill is average (40)",
                        " My mastery of this skill is average (50)",
                        " My mastery of this skill is average (60)",
                        " My mastery of this skill is average (70)",
                        " My mastery of this skill is at an expert level (80)",
                        " My mastery of this skill is at an expert level  (90)",
                        " My mastery of this skill is at an expert level  (100)"                        
                    ]
                },
                { 
                    "qid":"10",
                    "text":"Coordinating with teammates to optimize tasks.",
                    "input_type": "SLIDER",
                    "image_asset":null,
                    "labels":[
                        " I have never used this skill (0)",
                        " I have never used this skill (10)",
                        " I have never used this skill (20)",
                        " I have never used this skill (30)",
                        " My mastery of this skill is average (40)",
                        " My mastery of this skill is average (50)",
                        " My mastery of this skill is average (60)",
                        " My mastery of this skill is average (70)",
                        " My mastery of this skill is at an expert level (80)",
                        " My mastery of this skill is at an expert level  (90)",
                        " My mastery of this skill is at an expert level  (100)"                        
                    ]
                },
                { 
                    "qid":"11",
                    "text":"Maintaining an awareness of game/task parameters (e.g., time limits, point goals, etc).",
                    "input_type": "SLIDER",
                    "image_asset":null,
                    "labels":[
                        " I have never used this skill (0)",
                        " I have never used this skill (10)",
                        " I have never used this skill (20)",
                        " I have never used this skill (30)",
                        " My mastery of this skill is average (40)",
                        " My mastery of this skill is average (50)",
                        " My mastery of this skill is average (60)",
                        " My mastery of this skill is average (70)",
                        " My mastery of this skill is at an expert level (80)",
                        " My mastery of this skill is at an expert level  (90)",
                        " My mastery of this skill is at an expert level  (100)"                        
                    ]
                },
                { 
                    "qid":"12",
                    "text":"Learning the purposes of novel items, tools, or objects.",
                    "input_type": "SLIDER",
                    "image_asset":null,
                    "labels":[
                        " I have never used this skill (0)",
                        " I have never used this skill (10)",
                        " I have never used this skill (20)",
                        " I have never used this skill (30)",
                        " My mastery of this skill is average (40)",
                        " My mastery of this skill is average (50)",
                        " My mastery of this skill is average (60)",
                        " My mastery of this skill is average (70)",
                        " My mastery of this skill is at an expert level (80)",
                        " My mastery of this skill is at an expert level  (90)",
                        " My mastery of this skill is at an expert level  (100)"                        
                    ]
                },
                { 
                    "qid":"13",
                    "text":"Remembering which places you have visited in a virtual environment.",
                    "input_type": "SLIDER",
                    "image_asset":null,
                    "labels":[
                        " I have never used this skill (0)",
                        " I have never used this skill (10)",
                        " I have never used this skill (20)",
                        " I have never used this skill (30)",
                        " My mastery of this skill is average (40)",
                        " My mastery of this skill is average (50)",
                        " My mastery of this skill is average (60)",
                        " My mastery of this skill is average (70)",
                        " My mastery of this skill is at an expert level (80)",
                        " My mastery of this skill is at an expert level  (90)",
                        " My mastery of this skill is at an expert level  (100)"                        
                    ]
                },
                { 
                    "qid":"14",
                    "text":"Controlling the movement of an avatar using the W, A, S, and D keys + mouse control.",
                    "input_type": "SLIDER",
                    "image_asset":null,
                    "labels":[
                        " I have never used this skill (0)",
                        " I have never used this skill (10)",
                        " I have never used this skill (20)",
                        " I have never used this skill (30)",
                        " My mastery of this skill is average (40)",
                        " My mastery of this skill is average (50)",
                        " My mastery of this skill is average (60)",
                        " My mastery of this skill is average (70)",
                        " My mastery of this skill is at an expert level (80)",
                        " My mastery of this skill is at an expert level  (90)",
                        " My mastery of this skill is at an expert level  (100)"                        
                    ]
                },
                { 
                    "qid":"15",
                    "text":"Keeping track of where you are in a virtual environment.",
                    "input_type": "SLIDER",
                    "image_asset":null,
                    "labels":[
                        " I have never used this skill (0)",
                        " I have never used this skill (10)",
                        " I have never used this skill (20)",
                        " I have never used this skill (30)",
                        " My mastery of this skill is average (40)",
                        " My mastery of this skill is average (50)",
                        " My mastery of this skill is average (60)",
                        " My mastery of this skill is average (70)",
                        " My mastery of this skill is at an expert level (80)",
                        " My mastery of this skill is at an expert level  (90)",
                        " My mastery of this skill is at an expert level  (100)"                        
         			]
				}
			]
		},		
		{
			"survey_name":"Social Dominance",
            "survey_id":"SOC_DOM",
            "data":[
				{
					"text":"Please rate your agreement with the following statements:" 
				},	
				{
					"qid":"1",
                    "text":"I have no problems talking in front of a group.",
                    "input_type": "MULTI_CHOICE",
                    "image_asset":null,
                    "labels":[
						"Strongly disagree (1)",
						"Somewhat disagree (2)",
						"Neither agree nor disagree (3)",
						"Somewhat agree (4)",
						"Strongly agree (5)"
					]
				},
				{
					"qid":"2",
                    "text":"At school I found it easy to talk in front of the class.",
                    "input_type": "MULTI_CHOICE",
                    "image_asset":null,
                    "labels":[
						"Strongly disagree (1)",
						"Somewhat disagree (2)",
						"Neither agree nor disagree (3)",
						"Somewhat agree (4)",
						"Strongly agree (5)"
					]
				},
				{
					"qid":"3",
                    "text":"No doubt I'll make a good leader.",
                    "input_type": "MULTI_CHOICE",
                    "image_asset":null,
                    "labels":[
						"Strongly disagree (1)",
						"Somewhat disagree (2)",
						"Neither agree nor disagree (3)",
						"Somewhat agree (4)",
						"Strongly agree (5)"
					]
				},
				{
					"qid":"4",
                    "text":"I certaintly have self-confidence.",
                    "input_type": "MULTI_CHOICE",
                    "image_asset":null,
                    "labels":[
						"Strongly disagree (1)",
						"Somewhat disagree (2)",
						"Neither agree nor disagree (3)",
						"Somewhat agree (4)",
						"Strongly agree (5)"
					]
				},
				{
					"qid":"5",
                    "text":"For me it is not hard to start a conversation in a group.",
                    "input_type": "MULTI_CHOICE",
                    "image_asset":null,
                    "labels":[
						"Strongly disagree (1)",
						"Somewhat disagree (2)",
						"Neither agree nor disagree (3)",
						"Somewhat agree (4)",
						"Strongly agree (5)"
					]
				},
				{
					"qid":"6",
                    "text":"I am not shy with strangers.",
                    "input_type": "MULTI_CHOICE",
                    "image_asset":null,
                    "labels":[
						"Strongly disagree (1)",
						"Somewhat disagree (2)",
						"Neither agree nor disagree (3)",
						"Somewhat agree (4)",
						"Strongly agree (5)"
					]
				},
				{
					"qid":"7",
                    "text":"I like taking responsibility.",
                    "input_type": "MULTI_CHOICE",
                    "image_asset":null,
                    "labels":[
						"Strongly disagree (1)",
						"Somewhat disagree (2)",
						"Neither agree nor disagree (3)",
						"Somewhat agree (4)",
						"Strongly agree (5)"
					]
				},
				{
					"qid":"8",
                    "text":"People turn to me for decisions.",
                    "input_type": "MULTI_CHOICE",
                    "image_asset":null,
                    "labels":[
						"Strongly disagree (1)",
						"Somewhat disagree (2)",
						"Neither agree nor disagree (3)",
						"Somewhat agree (4)",
						"Strongly agree (5)"
					]
				},
				{
					"qid":"9",
                    "text":"I can look everybody in the eye, and lie with a straight face.",
                    "input_type": "MULTI_CHOICE",
                    "image_asset":null,
                    "labels":[
						"Strongly disagree (1)",
						"Somewhat disagree (2)",
						"Neither agree nor disagree (3)",
						"Somewhat agree (4)",
						"Strongly agree (5)"
					]
				},
				{
					"qid":"10",
                    "text":"I can lie without anybody noticing.",
                    "input_type": "MULTI_CHOICE",
                    "image_asset":null,
                    "labels":[
						"Strongly disagree (1)",
						"Somewhat disagree (2)",
						"Neither agree nor disagree (3)",
						"Somewhat agree (4)",
						"Strongly agree (5)"
					]
				},
				{
					"qid":"11",
                    "text":"I find it important to get my way.",
                    "input_type": "MULTI_CHOICE",
                    "image_asset":null,
                    "labels":[
						"Strongly disagree (1)",
						"Somewhat disagree (2)",
						"Neither agree nor disagree (3)",
						"Somewhat agree (4)",
						"Strongly agree (5)"
					]
				},
				{
					"qid":"12",
                    "text":"I find it important to get my way, even if this causes a row (i.e., quarrel).",
                    "input_type": "MULTI_CHOICE",
                    "image_asset":null,
                    "labels":[
						"Strongly disagree (1)",
						"Somewhat disagree (2)",
						"Neither agree nor disagree (3)",
						"Somewhat agree (4)",
						"Strongly agree (5)"
					]
				},
				{
					"qid":"13",
                    "text":"I quickly feel aggressive with people.",
                    "input_type": "MULTI_CHOICE",
                    "image_asset":null,
                    "labels":[
						"Strongly disagree (1)",
						"Somewhat disagree (2)",
						"Neither agree nor disagree (3)",
						"Somewhat agree (4)",
						"Strongly agree (5)"
					]
				},
				{
					"qid":"14",
                    "text":"I make smart, sarcastic remarks if people deserve it.",
                    "input_type": "MULTI_CHOICE",
                    "image_asset":null,
                    "labels":[
						"Strongly disagree (1)",
						"Somewhat disagree (2)",
						"Neither agree nor disagree (3)",
						"Somewhat agree (4)",
						"Strongly agree (5)"
					]
				},
				{
					"qid":"15",
                    "text":"I'd rather be disliked (for being unkind) than people look down on me (for not achieving my aims).",
                    "input_type": "MULTI_CHOICE",
                    "image_asset":null,
                    "labels":[
						"Strongly disagree (1)",
						"Somewhat disagree (2)",
						"Neither agree nor disagree (3)",
						"Somewhat agree (4)",
						"Strongly agree (5)"
					]
                }
            ]
        },
		{
			"survey_name":"Mind In The Eyes - Short",
			"survey_id":"RMIE_short",
			"data":[
				{
					"qid":"1", 
					"text":"Which of these best describes what the person above is feeling or thinking?",
					"input_type":"MULTI_CHOICE",
					"image_asset":"SurveyImages/RMIE_short_qid1.png",
					"labels":[
						"Joking",
						"Insisting",
						"Amused",
						"Relaxed"
					]
				},
				{
					"qid":"2", 
					"text":"Which of these best describes what the person above is feeling or thinking?",
					"input_type":"MULTI_CHOICE",
					"image_asset":"SurveyImages/RMIE_short_qid2.png",
					"labels":[
						"Aghast",
						"Fantasizing",
						"Impatient",
						"Alarmed"
					]
				},
				{
					"qid":"3", 
					"text":"Which of these best describes what the person above is feeling or thinking?",
					"input_type":"MULTI_CHOICE",
					"image_asset":"SurveyImages/RMIE_short_qid3.png",
					"labels":[
						"Terrified",
						"Amused",
						"Regretful",
						"Flirtatious"
					]
				},
				{
					"qid":"4", 
					"text":"Which of these best describes what the person above is feeling or thinking?",
					"input_type":"MULTI_CHOICE",
					"image_asset":"SurveyImages/RMIE_short_qid4.png",
					"labels":[
						"Contemplative",
						"Flustered",
						"Encouraging",
						"Amused"
					]
				},
				{
					"qid":"5", 
					"text":"Which of these best describes what the person above is feeling or thinking?",
					"input_type":"MULTI_CHOICE",
					"image_asset":"SurveyImages/RMIE_short_qid5.png",
					"labels":[
						"Doubtful",
						"Affectionate",
						"Playful",
						"Aghast"
					]
				},
				{
					"qid":"6",
					"text":"Which of these best describes what the person above is feeling or thinking?",
					"input_type":"MULTI_CHOICE",
					"image_asset":"SurveyImages/RMIE_short_qid6.png",
					"labels":[
						"Preoccupied",
						"Grateful",
						"Insisting",
						"Imploring"
					]
				},
				{
					"qid":"7", 
					"text":"Which of these best describes what the person above is feeling or thinking?",
					"input_type":"MULTI_CHOICE",
					"image_asset":"SurveyImages/RMIE_short_qid7.png",
					"labels":[
						"Pensive",
						"Irritated",
						"Excited",
						"Hostile"
					]
				},
				{
					"qid":"8", 
					"text":"Which of these best describes what the person above is feeling or thinking?",
					"input_type":"MULTI_CHOICE",
					"image_asset":"SurveyImages/RMIE_short_qid8.png",
					"labels":[
						"Joking",
						"Cautious",
						"Arrogant",
						"Reassuring"
					]
				},
				{
					"qid":"9", 
					"text":"Which of these best describes what the person above is feeling or thinking?",
					"input_type":"MULTI_CHOICE",
					"image_asset":"SurveyImages/RMIE_short_qid9.png",
					"labels":[
						"Interested",
						"Joking",
						"Affectionate",
						"Contented"
					]
				},
				{
					"qid":"10", 
					"text":"Which of these best describes what the person above is feeling or thinking?",
					"input_type":"MULTI_CHOICE",
					"image_asset":"SurveyImages/RMIE_short_qid10.png",
					"labels":[
						"Impatient",
						"Aghast",
						"Irritated",
						"Reflective"
					]
				}
			]
			
		},  
		{
			"survey_name":"Environmental Spatial Ability",
			"survey_id":"SBSOD",
			"data":[
				{ 
					"qid":"1",
					"text":"I am very good at giving directions.",
					"input_type": "MULTI_CHOICE",
					"image_asset":null,
					"labels":[
						"Strongly disagree (1)",
						"Disagree (2)",
						"Somewhat disagree (3)",
						"Neither agree nor disagree (4)",
						"Somewhat agree (5)",
						"Agree (6)",
						"Strongly agree (7)"
					]
				},
				{ 
					"qid":"2",
					"text":"I have poor memory for where I left things.",
					"input_type": "MULTI_CHOICE",
					"image_asset":null,
					"labels":[
						"Strongly disagree (1)",
						"Disagree (2)",
						"Somewhat disagree (3)",
						"Neither agree nor disagree (4)",
						"Somewhat agree (5)",
						"Agree (6)",
						"Strongly agree (7)"
					]
				},
				{ 
					"qid":"3",
					"text":"I am very good at judging distances.",
					"input_type": "MULTI_CHOICE",
					"image_asset":null,
					"labels":[
						"Strongly disagree (1)",
						"Disagree (2)",
						"Somewhat disagree (3)",
						"Neither agree nor disagree (4)",
						"Somewhat agree (5)",
						"Agree (6)",
						"Strongly agree (7)"
					]
				},
				{ 
					"qid":"4",
					"text":"My sense of direction is very good.",
					"input_type": "MULTI_CHOICE",
					"image_asset":null,
					"labels":[
						"Strongly disagree (1)",
						"Disagree (2)",
						"Somewhat disagree (3)",
						"Neither agree nor disagree (4)",
						"Somewhat agree (5)",
						"Agree (6)",
						"Strongly agree (7)"
					]
				},
				{ 
					"qid":"5",
					"text":"I tend to think of my environment in cardinal directions (North, South, East, West).",
					"input_type": "MULTI_CHOICE",
					"image_asset":null,
					"labels":[
						"Strongly disagree (1)",
						"Disagree (2)",
						"Somewhat disagree (3)",
						"Neither agree nor disagree (4)",
						"Somewhat agree (5)",
						"Agree (6)",
						"Strongly agree (7)"
					]
				},
				{ 
					"qid":"6",
					"text":"I can easily get lost in a new city.",
					"input_type": "MULTI_CHOICE",
					"image_asset":null,
					"labels":[
						"Strongly disagree (1)",
						"Disagree (2)",
						"Somewhat disagree (3)",
						"Neither agree nor disagree (4)",
						"Somewhat agree (5)",
						"Agree (6)",
						"Strongly agree (7)"
					]
				},
				{ 
					"qid":"7",
					"text":"I enjoy reading maps.",
					"input_type": "MULTI_CHOICE",
					"image_asset":null,
					"labels":[
						"Strongly disagree (1)",
						"Disagree (2)",
						"Somewhat disagree (3)",
						"Neither agree nor disagree (4)",
						"Somewhat agree (5)",
						"Agree (6)",
						"Strongly agree (7)"
					]
				},
				{ 
					"qid":"8",
					"text":"I have trouble understanding directions.",
					"input_type": "MULTI_CHOICE",
					"image_asset":null,
					"labels":[
						"Strongly disagree (1)",
						"Disagree (2)",
						"Somewhat disagree (3)",
						"Neither agree nor disagree (4)",
						"Somewhat agree (5)",
						"Agree (6)",
						"Strongly agree (7)"
					]
				},
				{ 
					"qid":"9",
					"text":"I am very good at reading maps.",
					"input_type": "MULTI_CHOICE",
					"image_asset":null,
					"labels":[
						"Strongly disagree (1)",
						"Disagree (2)",
						"Somewhat disagree (3)",
						"Neither agree nor disagree (4)",
						"Somewhat agree (5)",
						"Agree (6)",
						"Strongly agree (7)"
					]
				},
				{ 
					"qid":"10",
					"text":"I don't remember routes very well while riding as a passenger in a car.",
					"input_type": "MULTI_CHOICE",
					"image_asset":null,
					"labels":[
						"Strongly disagree (1)",
						"Disagree (2)",
						"Somewhat disagree (3)",
						"Neither agree nor disagree (4)",
						"Somewhat agree (5)",
						"Agree (6)",
						"Strongly agree (7)"
					]
				},
				{ 
					"qid":"11",
					"text":"I don't enjoy giving directions.",
					"input_type": "MULTI_CHOICE",
					"image_asset":null,
					"labels":[
						"Strongly disagree (1)",
						"Disagree (2)",
						"Somewhat disagree (3)",
						"Neither agree nor disagree (4)",
						"Somewhat agree (5)",
						"Agree (6)",
						"Strongly agree (7)"
					]
				},
				{ 
					"qid":"12",
					"text":"It's not important to me to know where I am.",
					"input_type": "MULTI_CHOICE",
					"image_asset":null,
					"labels":[
						"Strongly disagree (1)",
						"Disagree (2)",
						"Somewhat disagree (3)",
						"Neither agree nor disagree (4)",
						"Somewhat agree (5)",
						"Agree (6)",
						"Strongly agree (7)"
					]
				},
				{ 
					"qid":"13",
					"text":"I usually let someone else do that navigational planning for long trips.",
					"input_type": "MULTI_CHOICE",
					"image_asset":null,
					"labels":[
						"Strongly disagree (1)",
						"Disagree (2)",
						"Somewhat disagree (3)",
						"Neither agree nor disagree (4)",
						"Somewhat agree (5)",
						"Agree (6)",
						"Strongly agree (7)"
					]
				},
				{ 
					"qid":"14",
					"text":"I can usually remember a new route after traveling it only once.",
					"input_type": "MULTI_CHOICE",
					"image_asset":null,
					"labels":[
						"Strongly disagree (1)",
						"Disagree (2)",
						"Somewhat disagree (3)",
						"Neither agree nor disagree (4)",
						"Somewhat agree (5)",
						"Agree (6)",
						"Strongly agree (7)"
					]
				},
				{ 
					"qid":"15",
					"text":"I don't have a good mental map of my environment.",
					"input_type": "MULTI_CHOICE",
					"image_asset":null,
					"labels":[
						"Strongly disagree (1)",
						"Disagree (2)",
						"Somewhat disagree (3)",
						"Neither agree nor disagree (4)",
						"Somewhat agree (5)",
						"Agree (6)",
						"Strongly agree (7)"
					]
				}
			]
		}
	]
}