{
    "PyGLFoVAgent": { "level": "INFO" },
    "FileBridge": { "level": "WARNING" },
    "BaseAgent": { "level": "WARNING" },
    "Bridge": { "level": "INFO" },
    "BaseBridge": { "level": "INFO" },
    "FoVWorker": { "level": "INFO" },
    "FoVWorkerMultithread":
    {
        "level": "INFO"
    },
    "IgnoreMultiplePlayerStateDispatcher":
    {
        "level": "INFO"
    },
    "Participant":
    {
        "level": "INFO"
    },
    "BlockSummaryMessageEndpoint":
    {
        "level": "WARNING"
    },
    "MatplotVisualizer":
    {
        "level": "WARNING"
    },
    "WorldModel":
    {
        "level": "INFO"
    },
    "StaticVboStore": 
    {
        "level": "WARNING"
    },
    "PlayerVboStore":
    {
        "level": "WARNING"
    },
    "CompositeVertexStore":
    {
        "level": "WARNING"
    },
    "ParserMap":
    {
        "level": "WARNING"
    },
    "CreatedBlockListUpdate": { "level": "DEBUG" }
}