{
  "definitions": {},
  "$schema": "http://json-schema.org/draft-07/schema#",
  "$id": "http://asist.aptima.com/schemas/event_player_proximity.json",
  "type": "object",
  "title": "The Event Player Proximity Schema",
  "version": "1.0",
  "required": [
    "header",
    "msg",
    "data"
  ],
  "properties": {
    "header": {
      "$ref": "../Common_Header/common_header.json",
      "properties": {         
        "message_type": {
        "$id": "#/properties/message_type",
        "type": "string",
        "title": "The Message_type Schema",
        "const": "event"
        }
      }
    },
    "msg": {
      "$ref": "../Common_Message/common_message.json",
      "properties": {         
        "sub_type": {
        "$id": "#/properties/sub_type",
        "type": "string",
        "title": "The Sub Type Schema",
        "const": "Event:proximity"
        }
      }
    },
    "data": {
      "$id": "#/properties/message/properties/data",
      "type": "object",
      "title": "The Proximity update Data Schema",
      "required": [
        "elapsed_milliseconds",
        "participants"
      ],
      "properties": {
        "elapsed_milliseconds": {
          "$id": "#/properties/event/state/elapsed_milliseconds",
          "type": "number",
          "title": "The Elapsed Milliseconds Schema",
          "examples": [
            5000, 77459, 689457
          ],
          "pattern": "^[0-9]+$"
        },
        "participants": {
          "$id": "#/properties/data/properties/proximity_list",
          "type": "array",
          "items": { "$ref": "./proximity.json" },
          "title": "The Proximity List Schema",
          "default": ""
        }
      }
    }
  }
}
