{
    "definitions": {},
    "$schema": "http://json-schema.org/draft-07/schema#",
    "$id": "http://asist.aptima.com/schemas/mission_blockage.json",
    "type": "object",
    "title": "Misson Blockage Schema",
    "version": "0.2",
    "required": [
      "x",
      "y",
      "z",
      "block_type"
    ],
    "properties": {
        "x": {
            "$id": "#/properties/x",
            "type": "number",
            "title": "The X Schema",
            "default": 0.0,
            "examples": [
              -2194.8933503172193
            ]
          },
          "y": {
            "$id": "#/properties/y",
            "type": "number",
            "title": "The Y Schema",
            "default": 0.0,
            "examples": [
              24.0
            ]
          },
          "z": {
            "$id": "#/properties/z",
            "type": "number",
            "title": "The Z Schema",
            "default": 0.0,
            "examples": [
              190.33727
            ]
          },
          "block_type": {
            "$id": "#/properties/block_type",
            "type": "string",
            "title": "The Block Type Schema",          
            "examples": [
              "cobblestone","dirt"
            ],
            "pattern": "^(.*)$"
          },
          "room_name": {
            "$id": "#/properties/room_name",
            "type": "string",
            "title": "The Room Name Schema",          
            "examples": [
              "Security Office"
            ],
            "pattern": "^(.*)$"
          },
          "feature_type": {
            "$id": "#/properties/feature_type",
            "type": "string",
            "title": "The Feature Type Schema",          
            "examples": [
              "Blockage"
            ],
            "pattern": "^(.*)$"
          }
    }
  }
  